[
  {
    "id": "1",
    "rgbColor": "RGB (136, 14, 79)",
    "wayfarerStatus": ""
  },
  {
    "id": "2",
    "rgbColor": "RGB (165, 39, 20)",
    "wayfarerStatus": ""
  },
  {
    "id": "3",
    "rgbColor": "RGB (230, 81, 0)",
    "wayfarerStatus": ""
  },
  {
    "id": "4",
    "rgbColor": "RGB (249, 168, 37)",
    "wayfarerStatus": ""
  },
  {
    "id": "5",
    "rgbColor": "RGB (255, 214, 0)",
    "wayfarerStatus": ""
  },
  {
    "id": "6",
    "rgbColor": "RGB (129, 119, 23)",
    "wayfarerStatus": ""
  },
  {
    "id": "7",
    "rgbColor": "RGB (85, 139, 47)",
    "wayfarerStatus": ""
  },
  {
    "id": "8",
    "rgbColor": "RGB (9, 113, 56)",
    "wayfarerStatus": ""
  },
  {
    "id": "9",
    "rgbColor": "RGB (0, 96, 100)",
    "wayfarerStatus": ""
  },
  {
    "id": "10",
    "rgbColor": "RGB (1, 87, 155)",
    "wayfarerStatus": ""
  },
  {
    "id": "11",
    "rgbColor": "RGB (26, 35, 126)",
    "wayfarerStatus": ""
  },
  {
    "id": "12",
    "rgbColor": "RGB (103, 58, 183)",
    "wayfarerStatus": ""
  },
  {
    "id": "13",
    "rgbColor": "RGB (78, 52, 46)",
    "wayfarerStatus": ""
  },
  {
    "id": "14",
    "rgbColor": "RGB (194, 24, 91)",
    "wayfarerStatus": ""
  },
  {
    "id": "15",
    "rgbColor": "RGB (255, 82, 82)",
    "wayfarerStatus": ""
  },
  {
    "id": "16",
    "rgbColor": "RGB (245, 124, 0)",
    "wayfarerStatus": ""
  },
  {
    "id": "17",
    "rgbColor": "RGB (251, 192, 45)",
    "wayfarerStatus": ""
  },
  {
    "id": "18",
    "rgbColor": "RGB (255, 234, 0)",
    "wayfarerStatus": ""
  },
  {
    "id": "19",
    "rgbColor": "RGB (175, 180, 43)",
    "wayfarerStatus": ""
  },
  {
    "id": "20",
    "rgbColor": "RGB (124, 179, 66)",
    "wayfarerStatus": ""
  },
  {
    "id": "21",
    "rgbColor": "RGB (15, 157, 88)",
    "wayfarerStatus": ""
  },
  {
    "id": "22",
    "rgbColor": "RGB (0, 151, 167)",
    "wayfarerStatus": ""
  },
  {
    "id": "23",
    "rgbColor": "RGB (2, 136, 209)",
    "wayfarerStatus": ""
  },
  {
    "id": "24",
    "rgbColor": "RGB (57, 73, 171)",
    "wayfarerStatus": ""
  },
  {
    "id": "25",
    "rgbColor": "RGB (156, 39, 176)",
    "wayfarerStatus": ""
  },
  {
    "id": "26",
    "rgbColor": "RGB (121, 85, 72)",
    "wayfarerStatus": ""
  },
  {
    "id": "27",
    "rgbColor": "RGB (189, 189, 189)",
    "wayfarerStatus": ""
  },
  {
    "id": "28",
    "rgbColor": "RGB (117, 117, 117)",
    "wayfarerStatus": ""
  },
  {
    "id": "29",
    "rgbColor": "RGB (66, 66, 66)",
    "wayfarerStatus": ""
  },
  {
    "id": "30",
    "rgbColor": "RGB (0, 0, 0)",
    "wayfarerStatus": ""
  }
]
